Thu Nov 12 07:20:34 2020,0,0,0,0,0,24,27,56,84,84,121,122,153,158,179,199,201,227,231,254,286,288,317,317,354,358,387,411,427,463,463,503,505,536,563,571,604,608,636,670,671,705,707,732,756,756,786,791,816
Thu Nov 12 07:20:54 2020,1013,1013,1013,1013,1013,1015,1023,1044,1045,1068,1069,1056,1059,1047,1039,1039,1059,1059,1082,1084,1108,1099,1099,1084,1084,1064,1067,1095,1123,1124,1150,1146,1137,1137,1123,1114,1114,1134,1134,1151,1164,1171,1154,1154,1141,1141,1129,1135,1145,1167
Thu Nov 12 07:21:17 2020,1142,1142,1142,1086,1086,1086,1087,1093,1102,1111,1105,1098,1086,1091,1098,1107,1114,1102,1095,1086,1095,1102,1110,1116,1104,1095,1088,1098,1106,1118,1116,1103,1095,1090,1101,1111,1120,1119,1104,1094,1091,1103,1110,1121,1118,1108,1097,1094,1105,1114
Thu Nov 12 07:21:30 2020,1095,1095,1095,1095,1095,1095,1095,1095,1095,1095,1083,1083,1071,1072,1059,1059,1050,1044,1039,1034,1030,1022,1019,1006,1006,990,990,971,971,953,953,953,953,953,953,953,953,953
